ISO-10303-21;
HEADER;
/* Generated by software containing ST-Developer
 * from STEP Tools, Inc. (www.steptools.com) 
 */

FILE_DESCRIPTION(
/* description */ (''),
/* implementation_level */ '2;1');

FILE_NAME(
/* name */ 
'C:\\Users\\Lasse\\Seafile\\CAD\\Inventor_R2017\\Konstruktion\\Daten\\
20170213_Delta\\01_printed parts\\STEP\\printbed_support.stp',
/* time_stamp */ '2019-08-12T17:59:18+02:00',
/* author */ ('Lasse'),
/* organization */ (''),
/* preprocessor_version */ 'ST-DEVELOPER v17',
/* originating_system */ 'Autodesk Inventor 2018',
/* authorisation */ '');

FILE_SCHEMA (('AUTOMOTIVE_DESIGN { 1 0 10303 214 3 1 1 }'));
ENDSEC;

DATA;
#10=MECHANICAL_DESIGN_GEOMETRIC_PRESENTATION_REPRESENTATION('',(#13),#1281);
#11=SHAPE_REPRESENTATION_RELATIONSHIP('SRR','None',#1288,#12);
#12=ADVANCED_BREP_SHAPE_REPRESENTATION('',(#14),#1280);
#13=STYLED_ITEM('',(#1297),#14);
#14=MANIFOLD_SOLID_BREP('Solid1',#738);
#15=FACE_BOUND('',#91,.T.);
#16=FACE_BOUND('',#98,.T.);
#17=FACE_BOUND('',#100,.T.);
#18=FACE_BOUND('',#103,.T.);
#19=FACE_BOUND('',#107,.T.);
#20=FACE_BOUND('',#110,.T.);
#21=FACE_BOUND('',#112,.T.);
#22=FACE_BOUND('',#124,.T.);
#23=FACE_BOUND('',#128,.T.);
#24=FACE_BOUND('',#132,.T.);
#25=FACE_BOUND('',#134,.T.);
#26=FACE_BOUND('',#136,.T.);
#27=FACE_BOUND('',#138,.T.);
#28=FACE_BOUND('',#139,.T.);
#29=FACE_BOUND('',#140,.T.);
#30=FACE_BOUND('',#142,.T.);
#31=PLANE('',#755);
#32=PLANE('',#764);
#33=PLANE('',#765);
#34=PLANE('',#773);
#35=PLANE('',#780);
#36=PLANE('',#786);
#37=PLANE('',#793);
#38=PLANE('',#799);
#39=PLANE('',#800);
#40=PLANE('',#808);
#41=PLANE('',#810);
#42=PLANE('',#812);
#43=PLANE('',#816);
#44=PLANE('',#818);
#45=PLANE('',#825);
#46=PLANE('',#832);
#47=PLANE('',#833);
#48=PLANE('',#834);
#49=PLANE('',#835);
#50=PLANE('',#836);
#51=FACE_OUTER_BOUND('',#89,.T.);
#52=FACE_OUTER_BOUND('',#90,.T.);
#53=FACE_OUTER_BOUND('',#92,.T.);
#54=FACE_OUTER_BOUND('',#93,.T.);
#55=FACE_OUTER_BOUND('',#94,.T.);
#56=FACE_OUTER_BOUND('',#95,.T.);
#57=FACE_OUTER_BOUND('',#96,.T.);
#58=FACE_OUTER_BOUND('',#97,.T.);
#59=FACE_OUTER_BOUND('',#99,.T.);
#60=FACE_OUTER_BOUND('',#101,.T.);
#61=FACE_OUTER_BOUND('',#102,.T.);
#62=FACE_OUTER_BOUND('',#104,.T.);
#63=FACE_OUTER_BOUND('',#105,.T.);
#64=FACE_OUTER_BOUND('',#106,.T.);
#65=FACE_OUTER_BOUND('',#108,.T.);
#66=FACE_OUTER_BOUND('',#109,.T.);
#67=FACE_OUTER_BOUND('',#111,.T.);
#68=FACE_OUTER_BOUND('',#113,.T.);
#69=FACE_OUTER_BOUND('',#114,.T.);
#70=FACE_OUTER_BOUND('',#115,.T.);
#71=FACE_OUTER_BOUND('',#116,.T.);
#72=FACE_OUTER_BOUND('',#117,.T.);
#73=FACE_OUTER_BOUND('',#118,.T.);
#74=FACE_OUTER_BOUND('',#119,.T.);
#75=FACE_OUTER_BOUND('',#120,.T.);
#76=FACE_OUTER_BOUND('',#121,.T.);
#77=FACE_OUTER_BOUND('',#122,.T.);
#78=FACE_OUTER_BOUND('',#123,.T.);
#79=FACE_OUTER_BOUND('',#125,.T.);
#80=FACE_OUTER_BOUND('',#126,.T.);
#81=FACE_OUTER_BOUND('',#127,.T.);
#82=FACE_OUTER_BOUND('',#129,.T.);
#83=FACE_OUTER_BOUND('',#130,.T.);
#84=FACE_OUTER_BOUND('',#131,.T.);
#85=FACE_OUTER_BOUND('',#133,.T.);
#86=FACE_OUTER_BOUND('',#135,.T.);
#87=FACE_OUTER_BOUND('',#137,.T.);
#88=FACE_OUTER_BOUND('',#141,.T.);
#89=EDGE_LOOP('',(#476,#477,#478,#479));
#90=EDGE_LOOP('',(#480));
#91=EDGE_LOOP('',(#481,#482));
#92=EDGE_LOOP('',(#483,#484,#485,#486,#487,#488));
#93=EDGE_LOOP('',(#489,#490,#491,#492));
#94=EDGE_LOOP('',(#493,#494,#495,#496,#497,#498,#499,#500));
#95=EDGE_LOOP('',(#501,#502,#503,#504,#505,#506,#507,#508,#509,#510,#511,
#512,#513,#514,#515,#516,#517,#518));
#96=EDGE_LOOP('',(#519,#520,#521,#522));
#97=EDGE_LOOP('',(#523,#524,#525,#526,#527,#528,#529,#530,#531,#532,#533,
#534,#535,#536));
#98=EDGE_LOOP('',(#537,#538));
#99=EDGE_LOOP('',(#539,#540,#541,#542));
#100=EDGE_LOOP('',(#543,#544));
#101=EDGE_LOOP('',(#545,#546,#547,#548));
#102=EDGE_LOOP('',(#549,#550));
#103=EDGE_LOOP('',(#551));
#104=EDGE_LOOP('',(#552,#553,#554,#555,#556,#557));
#105=EDGE_LOOP('',(#558,#559,#560,#561));
#106=EDGE_LOOP('',(#562,#563));
#107=EDGE_LOOP('',(#564));
#108=EDGE_LOOP('',(#565,#566,#567,#568,#569,#570));
#109=EDGE_LOOP('',(#571,#572,#573,#574));
#110=EDGE_LOOP('',(#575));
#111=EDGE_LOOP('',(#576,#577));
#112=EDGE_LOOP('',(#578));
#113=EDGE_LOOP('',(#579,#580,#581,#582,#583,#584));
#114=EDGE_LOOP('',(#585,#586,#587,#588));
#115=EDGE_LOOP('',(#589,#590,#591,#592,#593));
#116=EDGE_LOOP('',(#594,#595,#596,#597));
#117=EDGE_LOOP('',(#598,#599,#600,#601,#602));
#118=EDGE_LOOP('',(#603,#604,#605,#606));
#119=EDGE_LOOP('',(#607,#608,#609,#610));
#120=EDGE_LOOP('',(#611,#612,#613,#614,#615,#616,#617));
#121=EDGE_LOOP('',(#618,#619,#620,#621));
#122=EDGE_LOOP('',(#622,#623,#624,#625,#626,#627));
#123=EDGE_LOOP('',(#628,#629));
#124=EDGE_LOOP('',(#630));
#125=EDGE_LOOP('',(#631,#632,#633,#634,#635));
#126=EDGE_LOOP('',(#636,#637,#638,#639));
#127=EDGE_LOOP('',(#640,#641));
#128=EDGE_LOOP('',(#642));
#129=EDGE_LOOP('',(#643,#644,#645,#646,#647,#648));
#130=EDGE_LOOP('',(#649,#650,#651,#652));
#131=EDGE_LOOP('',(#653,#654,#655,#656));
#132=EDGE_LOOP('',(#657,#658));
#133=EDGE_LOOP('',(#659,#660,#661,#662));
#134=EDGE_LOOP('',(#663));
#135=EDGE_LOOP('',(#664,#665,#666,#667));
#136=EDGE_LOOP('',(#668));
#137=EDGE_LOOP('',(#669,#670,#671,#672));
#138=EDGE_LOOP('',(#673));
#139=EDGE_LOOP('',(#674));
#140=EDGE_LOOP('',(#675));
#141=EDGE_LOOP('',(#676,#677,#678,#679));
#142=EDGE_LOOP('',(#680,#681));
#143=ELLIPSE('',#754,5.31162247654455,4.6);
#144=LINE('',#1070,#200);
#145=LINE('',#1082,#201);
#146=LINE('',#1088,#202);
#147=LINE('',#1091,#203);
#148=LINE('',#1094,#204);
#149=LINE('',#1096,#205);
#150=LINE('',#1098,#206);
#151=LINE('',#1100,#207);
#152=LINE('',#1102,#208);
#153=LINE('',#1104,#209);
#154=LINE('',#1105,#210);
#155=LINE('',#1108,#211);
#156=LINE('',#1112,#212);
#157=LINE('',#1116,#213);
#158=LINE('',#1118,#214);
#159=LINE('',#1120,#215);
#160=LINE('',#1124,#216);
#161=LINE('',#1128,#217);
#162=LINE('',#1131,#218);
#163=LINE('',#1133,#219);
#164=LINE('',#1134,#220);
#165=LINE('',#1137,#221);
#166=LINE('',#1141,#222);
#167=LINE('',#1145,#223);
#168=LINE('',#1149,#224);
#169=LINE('',#1151,#225);
#170=LINE('',#1153,#226);
#171=LINE('',#1157,#227);
#172=LINE('',#1160,#228);
#173=LINE('',#1166,#229);
#174=LINE('',#1175,#230);
#175=LINE('',#1183,#231);
#176=LINE('',#1188,#232);
#177=LINE('',#1200,#233);
#178=LINE('',#1203,#234);
#179=LINE('',#1204,#235);
#180=LINE('',#1213,#236);
#181=LINE('',#1216,#237);
#182=LINE('',#1220,#238);
#183=LINE('',#1221,#239);
#184=LINE('',#1222,#240);
#185=LINE('',#1224,#241);
#186=LINE('',#1226,#242);
#187=LINE('',#1228,#243);
#188=LINE('',#1229,#244);
#189=LINE('',#1231,#245);
#190=LINE('',#1233,#246);
#191=LINE('',#1239,#247);
#192=LINE('',#1240,#248);
#193=LINE('',#1251,#249);
#194=LINE('',#1254,#250);
#195=LINE('',#1264,#251);
#196=LINE('',#1267,#252);
#197=LINE('',#1271,#253);
#198=LINE('',#1272,#254);
#199=LINE('',#1274,#255);
#200=VECTOR('',#843,4.6);
#201=VECTOR('',#858,2.6);
#202=VECTOR('',#863,10.);
#203=VECTOR('',#866,10.);
#204=VECTOR('',#869,10.);
#205=VECTOR('',#870,10.);
#206=VECTOR('',#871,10.);
#207=VECTOR('',#872,10.);
#208=VECTOR('',#873,10.);
#209=VECTOR('',#874,10.);
#210=VECTOR('',#875,10.);
#211=VECTOR('',#878,10.);
#212=VECTOR('',#881,10.);
#213=VECTOR('',#884,10.);
#214=VECTOR('',#885,10.);
#215=VECTOR('',#886,10.);
#216=VECTOR('',#889,10.);
#217=VECTOR('',#892,10.);
#218=VECTOR('',#895,10.);
#219=VECTOR('',#896,10.);
#220=VECTOR('',#897,10.);
#221=VECTOR('',#900,10.);
#222=VECTOR('',#905,10.);
#223=VECTOR('',#908,10.);
#224=VECTOR('',#911,10.);
#225=VECTOR('',#912,10.);
#226=VECTOR('',#913,10.);
#227=VECTOR('',#916,10.);
#228=VECTOR('',#919,10.);
#229=VECTOR('',#926,10.);
#230=VECTOR('',#935,2.6);
#231=VECTOR('',#946,5.);
#232=VECTOR('',#951,2.6);
#233=VECTOR('',#966,5.);
#234=VECTOR('',#969,10.);
#235=VECTOR('',#970,10.);
#236=VECTOR('',#981,5.);
#237=VECTOR('',#984,2.6);
#238=VECTOR('',#989,10.);
#239=VECTOR('',#990,10.);
#240=VECTOR('',#991,10.);
#241=VECTOR('',#994,10.);
#242=VECTOR('',#997,10.);
#243=VECTOR('',#998,10.);
#244=VECTOR('',#999,10.);
#245=VECTOR('',#1002,10.);
#246=VECTOR('',#1005,10.);
#247=VECTOR('',#1014,10.);
#248=VECTOR('',#1015,10.);
#249=VECTOR('',#1030,5.);
#250=VECTOR('',#1033,2.6);
#251=VECTOR('',#1046,5.);
#252=VECTOR('',#1049,2.6);
#253=VECTOR('',#1054,10.);
#254=VECTOR('',#1055,10.);
#255=VECTOR('',#1058,10.);
#256=CIRCLE('',#753,4.6);
#257=CIRCLE('',#756,2.6);
#258=CIRCLE('',#757,2.6);
#259=CIRCLE('',#759,2.6);
#260=CIRCLE('',#760,2.6);
#261=CIRCLE('',#762,1.);
#262=CIRCLE('',#763,1.);
#263=CIRCLE('',#766,5.);
#264=CIRCLE('',#767,5.);
#265=CIRCLE('',#768,5.);
#266=CIRCLE('',#769,5.);
#267=CIRCLE('',#770,1.);
#268=CIRCLE('',#772,1.);
#269=CIRCLE('',#774,5.);
#270=CIRCLE('',#775,5.);
#271=CIRCLE('',#776,5.);
#272=CIRCLE('',#777,5.);
#273=CIRCLE('',#778,5.);
#274=CIRCLE('',#779,5.);
#275=CIRCLE('',#781,5.);
#276=CIRCLE('',#782,5.);
#277=CIRCLE('',#784,2.6);
#278=CIRCLE('',#785,2.6);
#279=CIRCLE('',#787,5.);
#280=CIRCLE('',#788,5.);
#281=CIRCLE('',#791,2.6);
#282=CIRCLE('',#792,2.6);
#283=CIRCLE('',#794,5.);
#284=CIRCLE('',#795,5.);
#285=CIRCLE('',#797,5.);
#286=CIRCLE('',#798,5.);
#287=CIRCLE('',#801,5.);
#288=CIRCLE('',#802,5.);
#289=CIRCLE('',#803,2.6);
#290=CIRCLE('',#806,2.6);
#291=CIRCLE('',#813,5.);
#292=CIRCLE('',#814,5.);
#293=CIRCLE('',#817,5.);
#294=CIRCLE('',#819,5.);
#295=CIRCLE('',#820,5.);
#296=CIRCLE('',#821,2.6);
#297=CIRCLE('',#824,2.6);
#298=CIRCLE('',#826,5.);
#299=CIRCLE('',#827,5.);
#300=CIRCLE('',#828,2.6);
#301=CIRCLE('',#831,2.6);
#302=VERTEX_POINT('',#1067);
#303=VERTEX_POINT('',#1069);
#304=VERTEX_POINT('',#1073);
#305=VERTEX_POINT('',#1074);
#306=VERTEX_POINT('',#1078);
#307=VERTEX_POINT('',#1079);
#308=VERTEX_POINT('',#1084);
#309=VERTEX_POINT('',#1085);
#310=VERTEX_POINT('',#1087);
#311=VERTEX_POINT('',#1089);
#312=VERTEX_POINT('',#1093);
#313=VERTEX_POINT('',#1095);
#314=VERTEX_POINT('',#1097);
#315=VERTEX_POINT('',#1099);
#316=VERTEX_POINT('',#1101);
#317=VERTEX_POINT('',#1103);
#318=VERTEX_POINT('',#1107);
#319=VERTEX_POINT('',#1109);
#320=VERTEX_POINT('',#1111);
#321=VERTEX_POINT('',#1113);
#322=VERTEX_POINT('',#1115);
#323=VERTEX_POINT('',#1117);
#324=VERTEX_POINT('',#1119);
#325=VERTEX_POINT('',#1121);
#326=VERTEX_POINT('',#1123);
#327=VERTEX_POINT('',#1125);
#328=VERTEX_POINT('',#1127);
#329=VERTEX_POINT('',#1130);
#330=VERTEX_POINT('',#1132);
#331=VERTEX_POINT('',#1136);
#332=VERTEX_POINT('',#1140);
#333=VERTEX_POINT('',#1142);
#334=VERTEX_POINT('',#1144);
#335=VERTEX_POINT('',#1146);
#336=VERTEX_POINT('',#1148);
#337=VERTEX_POINT('',#1150);
#338=VERTEX_POINT('',#1152);
#339=VERTEX_POINT('',#1154);
#340=VERTEX_POINT('',#1156);
#341=VERTEX_POINT('',#1158);
#342=VERTEX_POINT('',#1161);
#343=VERTEX_POINT('',#1162);
#344=VERTEX_POINT('',#1167);
#345=VERTEX_POINT('',#1168);
#346=VERTEX_POINT('',#1172);
#347=VERTEX_POINT('',#1174);
#348=VERTEX_POINT('',#1178);
#349=VERTEX_POINT('',#1179);
#350=VERTEX_POINT('',#1185);
#351=VERTEX_POINT('',#1187);
#352=VERTEX_POINT('',#1191);
#353=VERTEX_POINT('',#1192);
#354=VERTEX_POINT('',#1196);
#355=VERTEX_POINT('',#1197);
#356=VERTEX_POINT('',#1202);
#357=VERTEX_POINT('',#1206);
#358=VERTEX_POINT('',#1207);
#359=VERTEX_POINT('',#1210);
#360=VERTEX_POINT('',#1215);
#361=VERTEX_POINT('',#1219);
#362=VERTEX_POINT('',#1227);
#363=VERTEX_POINT('',#1235);
#364=VERTEX_POINT('',#1244);
#365=VERTEX_POINT('',#1245);
#366=VERTEX_POINT('',#1248);
#367=VERTEX_POINT('',#1253);
#368=VERTEX_POINT('',#1257);
#369=VERTEX_POINT('',#1258);
#370=VERTEX_POINT('',#1261);
#371=VERTEX_POINT('',#1266);
#372=VERTEX_POINT('',#1270);
#373=EDGE_CURVE('',#302,#302,#256,.T.);
#374=EDGE_CURVE('',#302,#303,#144,.T.);
#375=EDGE_CURVE('',#303,#303,#143,.T.);
#376=EDGE_CURVE('',#304,#305,#257,.T.);
#377=EDGE_CURVE('',#305,#304,#258,.T.);
#378=EDGE_CURVE('',#306,#307,#259,.T.);
#379=EDGE_CURVE('',#307,#306,#260,.T.);
#380=EDGE_CURVE('',#307,#305,#145,.T.);
#381=EDGE_CURVE('',#308,#309,#261,.T.);
#382=EDGE_CURVE('',#309,#310,#146,.T.);
#383=EDGE_CURVE('',#310,#311,#262,.T.);
#384=EDGE_CURVE('',#311,#308,#147,.T.);
#385=EDGE_CURVE('',#312,#309,#148,.T.);
#386=EDGE_CURVE('',#312,#313,#149,.T.);
#387=EDGE_CURVE('',#313,#314,#150,.T.);
#388=EDGE_CURVE('',#314,#315,#151,.T.);
#389=EDGE_CURVE('',#316,#315,#152,.T.);
#390=EDGE_CURVE('',#317,#316,#153,.T.);
#391=EDGE_CURVE('',#310,#317,#154,.T.);
#392=EDGE_CURVE('',#308,#318,#155,.T.);
#393=EDGE_CURVE('',#319,#318,#263,.T.);
#394=EDGE_CURVE('',#320,#319,#156,.T.);
#395=EDGE_CURVE('',#321,#320,#264,.T.);
#396=EDGE_CURVE('',#322,#321,#157,.T.);
#397=EDGE_CURVE('',#323,#322,#158,.T.);
#398=EDGE_CURVE('',#324,#323,#159,.T.);
#399=EDGE_CURVE('',#325,#324,#265,.T.);
#400=EDGE_CURVE('',#326,#325,#160,.T.);
#401=EDGE_CURVE('',#327,#326,#266,.T.);
#402=EDGE_CURVE('',#327,#328,#161,.T.);
#403=EDGE_CURVE('',#316,#328,#267,.T.);
#404=EDGE_CURVE('',#315,#329,#162,.T.);
#405=EDGE_CURVE('',#329,#330,#163,.T.);
#406=EDGE_CURVE('',#330,#312,#164,.T.);
#407=EDGE_CURVE('',#328,#331,#165,.T.);
#408=EDGE_CURVE('',#331,#317,#268,.T.);
#409=EDGE_CURVE('',#331,#332,#166,.T.);
#410=EDGE_CURVE('',#333,#332,#269,.T.);
#411=EDGE_CURVE('',#334,#333,#167,.T.);
#412=EDGE_CURVE('',#335,#334,#270,.T.);
#413=EDGE_CURVE('',#336,#335,#168,.T.);
#414=EDGE_CURVE('',#337,#336,#169,.T.);
#415=EDGE_CURVE('',#338,#337,#170,.T.);
#416=EDGE_CURVE('',#339,#338,#271,.T.);
#417=EDGE_CURVE('',#340,#339,#171,.T.);
#418=EDGE_CURVE('',#341,#340,#272,.T.);
#419=EDGE_CURVE('',#341,#311,#172,.T.);
#420=EDGE_CURVE('',#342,#343,#273,.T.);
#421=EDGE_CURVE('',#343,#342,#274,.T.);
#422=EDGE_CURVE('',#332,#327,#173,.T.);
#423=EDGE_CURVE('',#344,#345,#275,.T.);
#424=EDGE_CURVE('',#345,#344,#276,.T.);
#425=EDGE_CURVE('',#346,#346,#277,.T.);
#426=EDGE_CURVE('',#346,#347,#174,.T.);
#427=EDGE_CURVE('',#347,#347,#278,.T.);
#428=EDGE_CURVE('',#348,#349,#279,.T.);
#429=EDGE_CURVE('',#349,#348,#280,.T.);
#430=EDGE_CURVE('',#345,#349,#175,.T.);
#431=EDGE_CURVE('',#350,#350,#281,.T.);
#432=EDGE_CURVE('',#350,#351,#176,.T.);
#433=EDGE_CURVE('',#351,#351,#282,.T.);
#434=EDGE_CURVE('',#352,#353,#283,.T.);
#435=EDGE_CURVE('',#353,#352,#284,.T.);
#436=EDGE_CURVE('',#354,#355,#285,.T.);
#437=EDGE_CURVE('',#355,#354,#286,.T.);
#438=EDGE_CURVE('',#355,#353,#177,.T.);
#439=EDGE_CURVE('',#314,#356,#178,.T.);
#440=EDGE_CURVE('',#329,#356,#179,.T.);
#441=EDGE_CURVE('',#357,#358,#287,.T.);
#442=EDGE_CURVE('',#358,#357,#288,.T.);
#443=EDGE_CURVE('',#359,#359,#289,.T.);
#444=EDGE_CURVE('',#343,#358,#180,.T.);
#445=EDGE_CURVE('',#359,#360,#181,.T.);
#446=EDGE_CURVE('',#360,#360,#290,.T.);
#447=EDGE_CURVE('',#320,#361,#182,.T.);
#448=EDGE_CURVE('',#361,#339,#183,.T.);
#449=EDGE_CURVE('',#338,#321,#184,.T.);
#450=EDGE_CURVE('',#337,#322,#185,.T.);
#451=EDGE_CURVE('',#324,#335,#186,.T.);
#452=EDGE_CURVE('',#334,#362,#187,.T.);
#453=EDGE_CURVE('',#362,#325,#188,.T.);
#454=EDGE_CURVE('',#336,#323,#189,.T.);
#455=EDGE_CURVE('',#326,#333,#190,.T.);
#456=EDGE_CURVE('',#362,#363,#291,.T.);
#457=EDGE_CURVE('',#363,#362,#292,.T.);
#458=EDGE_CURVE('',#340,#319,#191,.T.);
#459=EDGE_CURVE('',#318,#341,#192,.T.);
#460=EDGE_CURVE('',#361,#361,#293,.T.);
#461=EDGE_CURVE('',#364,#365,#294,.T.);
#462=EDGE_CURVE('',#365,#364,#295,.T.);
#463=EDGE_CURVE('',#366,#366,#296,.T.);
#464=EDGE_CURVE('',#361,#365,#193,.T.);
#465=EDGE_CURVE('',#366,#367,#194,.T.);
#466=EDGE_CURVE('',#367,#367,#297,.T.);
#467=EDGE_CURVE('',#368,#369,#298,.T.);
#468=EDGE_CURVE('',#369,#368,#299,.T.);
#469=EDGE_CURVE('',#370,#370,#300,.T.);
#470=EDGE_CURVE('',#363,#369,#195,.T.);
#471=EDGE_CURVE('',#370,#371,#196,.T.);
#472=EDGE_CURVE('',#371,#371,#301,.T.);
#473=EDGE_CURVE('',#356,#372,#197,.T.);
#474=EDGE_CURVE('',#330,#372,#198,.T.);
#475=EDGE_CURVE('',#372,#313,#199,.T.);
#476=ORIENTED_EDGE('',*,*,#373,.F.);
#477=ORIENTED_EDGE('',*,*,#374,.T.);
#478=ORIENTED_EDGE('',*,*,#375,.F.);
#479=ORIENTED_EDGE('',*,*,#374,.F.);
#480=ORIENTED_EDGE('',*,*,#373,.T.);
#481=ORIENTED_EDGE('',*,*,#376,.F.);
#482=ORIENTED_EDGE('',*,*,#377,.F.);
#483=ORIENTED_EDGE('',*,*,#378,.F.);
#484=ORIENTED_EDGE('',*,*,#379,.F.);
#485=ORIENTED_EDGE('',*,*,#380,.T.);
#486=ORIENTED_EDGE('',*,*,#377,.T.);
#487=ORIENTED_EDGE('',*,*,#376,.T.);
#488=ORIENTED_EDGE('',*,*,#380,.F.);
#489=ORIENTED_EDGE('',*,*,#381,.T.);
#490=ORIENTED_EDGE('',*,*,#382,.T.);
#491=ORIENTED_EDGE('',*,*,#383,.T.);
#492=ORIENTED_EDGE('',*,*,#384,.T.);
#493=ORIENTED_EDGE('',*,*,#382,.F.);
#494=ORIENTED_EDGE('',*,*,#385,.F.);
#495=ORIENTED_EDGE('',*,*,#386,.T.);
#496=ORIENTED_EDGE('',*,*,#387,.T.);
#497=ORIENTED_EDGE('',*,*,#388,.T.);
#498=ORIENTED_EDGE('',*,*,#389,.F.);
#499=ORIENTED_EDGE('',*,*,#390,.F.);
#500=ORIENTED_EDGE('',*,*,#391,.F.);
#501=ORIENTED_EDGE('',*,*,#381,.F.);
#502=ORIENTED_EDGE('',*,*,#392,.T.);
#503=ORIENTED_EDGE('',*,*,#393,.F.);
#504=ORIENTED_EDGE('',*,*,#394,.F.);
#505=ORIENTED_EDGE('',*,*,#395,.F.);
#506=ORIENTED_EDGE('',*,*,#396,.F.);
#507=ORIENTED_EDGE('',*,*,#397,.F.);
#508=ORIENTED_EDGE('',*,*,#398,.F.);
#509=ORIENTED_EDGE('',*,*,#399,.F.);
#510=ORIENTED_EDGE('',*,*,#400,.F.);
#511=ORIENTED_EDGE('',*,*,#401,.F.);
#512=ORIENTED_EDGE('',*,*,#402,.T.);
#513=ORIENTED_EDGE('',*,*,#403,.F.);
#514=ORIENTED_EDGE('',*,*,#389,.T.);
#515=ORIENTED_EDGE('',*,*,#404,.T.);
#516=ORIENTED_EDGE('',*,*,#405,.T.);
#517=ORIENTED_EDGE('',*,*,#406,.T.);
#518=ORIENTED_EDGE('',*,*,#385,.T.);
#519=ORIENTED_EDGE('',*,*,#403,.T.);
#520=ORIENTED_EDGE('',*,*,#407,.T.);
#521=ORIENTED_EDGE('',*,*,#408,.T.);
#522=ORIENTED_EDGE('',*,*,#390,.T.);
#523=ORIENTED_EDGE('',*,*,#383,.F.);
#524=ORIENTED_EDGE('',*,*,#391,.T.);
#525=ORIENTED_EDGE('',*,*,#408,.F.);
#526=ORIENTED_EDGE('',*,*,#409,.T.);
#527=ORIENTED_EDGE('',*,*,#410,.F.);
#528=ORIENTED_EDGE('',*,*,#411,.F.);
#529=ORIENTED_EDGE('',*,*,#412,.F.);
#530=ORIENTED_EDGE('',*,*,#413,.F.);
#531=ORIENTED_EDGE('',*,*,#414,.F.);
#532=ORIENTED_EDGE('',*,*,#415,.F.);
#533=ORIENTED_EDGE('',*,*,#416,.F.);
#534=ORIENTED_EDGE('',*,*,#417,.F.);
#535=ORIENTED_EDGE('',*,*,#418,.F.);
#536=ORIENTED_EDGE('',*,*,#419,.T.);
#537=ORIENTED_EDGE('',*,*,#420,.T.);
#538=ORIENTED_EDGE('',*,*,#421,.T.);
#539=ORIENTED_EDGE('',*,*,#407,.F.);
#540=ORIENTED_EDGE('',*,*,#402,.F.);
#541=ORIENTED_EDGE('',*,*,#422,.F.);
#542=ORIENTED_EDGE('',*,*,#409,.F.);
#543=ORIENTED_EDGE('',*,*,#423,.T.);
#544=ORIENTED_EDGE('',*,*,#424,.T.);
#545=ORIENTED_EDGE('',*,*,#425,.F.);
#546=ORIENTED_EDGE('',*,*,#426,.T.);
#547=ORIENTED_EDGE('',*,*,#427,.F.);
#548=ORIENTED_EDGE('',*,*,#426,.F.);
#549=ORIENTED_EDGE('',*,*,#428,.F.);
#550=ORIENTED_EDGE('',*,*,#429,.F.);
#551=ORIENTED_EDGE('',*,*,#425,.T.);
#552=ORIENTED_EDGE('',*,*,#423,.F.);
#553=ORIENTED_EDGE('',*,*,#424,.F.);
#554=ORIENTED_EDGE('',*,*,#430,.T.);
#555=ORIENTED_EDGE('',*,*,#429,.T.);
#556=ORIENTED_EDGE('',*,*,#428,.T.);
#557=ORIENTED_EDGE('',*,*,#430,.F.);
#558=ORIENTED_EDGE('',*,*,#431,.T.);
#559=ORIENTED_EDGE('',*,*,#432,.T.);
#560=ORIENTED_EDGE('',*,*,#433,.F.);
#561=ORIENTED_EDGE('',*,*,#432,.F.);
#562=ORIENTED_EDGE('',*,*,#434,.T.);
#563=ORIENTED_EDGE('',*,*,#435,.T.);
#564=ORIENTED_EDGE('',*,*,#431,.F.);
#565=ORIENTED_EDGE('',*,*,#436,.F.);
#566=ORIENTED_EDGE('',*,*,#437,.F.);
#567=ORIENTED_EDGE('',*,*,#438,.T.);
#568=ORIENTED_EDGE('',*,*,#434,.F.);
#569=ORIENTED_EDGE('',*,*,#435,.F.);
#570=ORIENTED_EDGE('',*,*,#438,.F.);
#571=ORIENTED_EDGE('',*,*,#404,.F.);
#572=ORIENTED_EDGE('',*,*,#388,.F.);
#573=ORIENTED_EDGE('',*,*,#439,.T.);
#574=ORIENTED_EDGE('',*,*,#440,.F.);
#575=ORIENTED_EDGE('',*,*,#427,.T.);
#576=ORIENTED_EDGE('',*,*,#441,.T.);
#577=ORIENTED_EDGE('',*,*,#442,.T.);
#578=ORIENTED_EDGE('',*,*,#443,.F.);
#579=ORIENTED_EDGE('',*,*,#420,.F.);
#580=ORIENTED_EDGE('',*,*,#421,.F.);
#581=ORIENTED_EDGE('',*,*,#444,.T.);
#582=ORIENTED_EDGE('',*,*,#441,.F.);
#583=ORIENTED_EDGE('',*,*,#442,.F.);
#584=ORIENTED_EDGE('',*,*,#444,.F.);
#585=ORIENTED_EDGE('',*,*,#443,.T.);
#586=ORIENTED_EDGE('',*,*,#445,.T.);
#587=ORIENTED_EDGE('',*,*,#446,.F.);
#588=ORIENTED_EDGE('',*,*,#445,.F.);
#589=ORIENTED_EDGE('',*,*,#395,.T.);
#590=ORIENTED_EDGE('',*,*,#447,.T.);
#591=ORIENTED_EDGE('',*,*,#448,.T.);
#592=ORIENTED_EDGE('',*,*,#416,.T.);
#593=ORIENTED_EDGE('',*,*,#449,.T.);
#594=ORIENTED_EDGE('',*,*,#449,.F.);
#595=ORIENTED_EDGE('',*,*,#415,.T.);
#596=ORIENTED_EDGE('',*,*,#450,.T.);
#597=ORIENTED_EDGE('',*,*,#396,.T.);
#598=ORIENTED_EDGE('',*,*,#399,.T.);
#599=ORIENTED_EDGE('',*,*,#451,.T.);
#600=ORIENTED_EDGE('',*,*,#412,.T.);
#601=ORIENTED_EDGE('',*,*,#452,.T.);
#602=ORIENTED_EDGE('',*,*,#453,.T.);
#603=ORIENTED_EDGE('',*,*,#451,.F.);
#604=ORIENTED_EDGE('',*,*,#398,.T.);
#605=ORIENTED_EDGE('',*,*,#454,.F.);
#606=ORIENTED_EDGE('',*,*,#413,.T.);
#607=ORIENTED_EDGE('',*,*,#401,.T.);
#608=ORIENTED_EDGE('',*,*,#455,.T.);
#609=ORIENTED_EDGE('',*,*,#410,.T.);
#610=ORIENTED_EDGE('',*,*,#422,.T.);
#611=ORIENTED_EDGE('',*,*,#452,.F.);
#612=ORIENTED_EDGE('',*,*,#411,.T.);
#613=ORIENTED_EDGE('',*,*,#455,.F.);
#614=ORIENTED_EDGE('',*,*,#400,.T.);
#615=ORIENTED_EDGE('',*,*,#453,.F.);
#616=ORIENTED_EDGE('',*,*,#456,.T.);
#617=ORIENTED_EDGE('',*,*,#457,.T.);
#618=ORIENTED_EDGE('',*,*,#418,.T.);
#619=ORIENTED_EDGE('',*,*,#458,.T.);
#620=ORIENTED_EDGE('',*,*,#393,.T.);
#621=ORIENTED_EDGE('',*,*,#459,.T.);
#622=ORIENTED_EDGE('',*,*,#447,.F.);
#623=ORIENTED_EDGE('',*,*,#394,.T.);
#624=ORIENTED_EDGE('',*,*,#458,.F.);
#625=ORIENTED_EDGE('',*,*,#417,.T.);
#626=ORIENTED_EDGE('',*,*,#448,.F.);
#627=ORIENTED_EDGE('',*,*,#460,.T.);
#628=ORIENTED_EDGE('',*,*,#461,.T.);
#629=ORIENTED_EDGE('',*,*,#462,.T.);
#630=ORIENTED_EDGE('',*,*,#463,.F.);
#631=ORIENTED_EDGE('',*,*,#460,.F.);
#632=ORIENTED_EDGE('',*,*,#464,.T.);
#633=ORIENTED_EDGE('',*,*,#461,.F.);
#634=ORIENTED_EDGE('',*,*,#462,.F.);
#635=ORIENTED_EDGE('',*,*,#464,.F.);
#636=ORIENTED_EDGE('',*,*,#463,.T.);
#637=ORIENTED_EDGE('',*,*,#465,.T.);
#638=ORIENTED_EDGE('',*,*,#466,.F.);
#639=ORIENTED_EDGE('',*,*,#465,.F.);
#640=ORIENTED_EDGE('',*,*,#467,.T.);
#641=ORIENTED_EDGE('',*,*,#468,.T.);
#642=ORIENTED_EDGE('',*,*,#469,.F.);
#643=ORIENTED_EDGE('',*,*,#456,.F.);
#644=ORIENTED_EDGE('',*,*,#457,.F.);
#645=ORIENTED_EDGE('',*,*,#470,.T.);
#646=ORIENTED_EDGE('',*,*,#467,.F.);
#647=ORIENTED_EDGE('',*,*,#468,.F.);
#648=ORIENTED_EDGE('',*,*,#470,.F.);
#649=ORIENTED_EDGE('',*,*,#469,.T.);
#650=ORIENTED_EDGE('',*,*,#471,.T.);
#651=ORIENTED_EDGE('',*,*,#472,.F.);
#652=ORIENTED_EDGE('',*,*,#471,.F.);
#653=ORIENTED_EDGE('',*,*,#405,.F.);
#654=ORIENTED_EDGE('',*,*,#440,.T.);
#655=ORIENTED_EDGE('',*,*,#473,.T.);
#656=ORIENTED_EDGE('',*,*,#474,.F.);
#657=ORIENTED_EDGE('',*,*,#378,.T.);
#658=ORIENTED_EDGE('',*,*,#379,.T.);
#659=ORIENTED_EDGE('',*,*,#406,.F.);
#660=ORIENTED_EDGE('',*,*,#474,.T.);
#661=ORIENTED_EDGE('',*,*,#475,.T.);
#662=ORIENTED_EDGE('',*,*,#386,.F.);
#663=ORIENTED_EDGE('',*,*,#433,.T.);
#664=ORIENTED_EDGE('',*,*,#475,.F.);
#665=ORIENTED_EDGE('',*,*,#473,.F.);
#666=ORIENTED_EDGE('',*,*,#439,.F.);
#667=ORIENTED_EDGE('',*,*,#387,.F.);
#668=ORIENTED_EDGE('',*,*,#446,.T.);
#669=ORIENTED_EDGE('',*,*,#414,.T.);
#670=ORIENTED_EDGE('',*,*,#454,.T.);
#671=ORIENTED_EDGE('',*,*,#397,.T.);
#672=ORIENTED_EDGE('',*,*,#450,.F.);
#673=ORIENTED_EDGE('',*,*,#375,.T.);
#674=ORIENTED_EDGE('',*,*,#466,.T.);
#675=ORIENTED_EDGE('',*,*,#472,.T.);
#676=ORIENTED_EDGE('',*,*,#384,.F.);
#677=ORIENTED_EDGE('',*,*,#419,.F.);
#678=ORIENTED_EDGE('',*,*,#459,.F.);
#679=ORIENTED_EDGE('',*,*,#392,.F.);
#680=ORIENTED_EDGE('',*,*,#436,.T.);
#681=ORIENTED_EDGE('',*,*,#437,.T.);
#682=CYLINDRICAL_SURFACE('',#752,4.6);
#683=CYLINDRICAL_SURFACE('',#758,2.6);
#684=CYLINDRICAL_SURFACE('',#761,1.);
#685=CYLINDRICAL_SURFACE('',#771,1.);
#686=CYLINDRICAL_SURFACE('',#783,2.6);
#687=CYLINDRICAL_SURFACE('',#789,5.);
#688=CYLINDRICAL_SURFACE('',#790,2.6);
#689=CYLINDRICAL_SURFACE('',#796,5.);
#690=CYLINDRICAL_SURFACE('',#804,5.);
#691=CYLINDRICAL_SURFACE('',#805,2.6);
#692=CYLINDRICAL_SURFACE('',#807,5.);
#693=CYLINDRICAL_SURFACE('',#809,5.);
#694=CYLINDRICAL_SURFACE('',#811,5.);
#695=CYLINDRICAL_SURFACE('',#815,5.);
#696=CYLINDRICAL_SURFACE('',#822,5.);
#697=CYLINDRICAL_SURFACE('',#823,2.6);
#698=CYLINDRICAL_SURFACE('',#829,5.);
#699=CYLINDRICAL_SURFACE('',#830,2.6);
#700=ADVANCED_FACE('',(#51),#682,.F.);
#701=ADVANCED_FACE('',(#52,#15),#31,.F.);
#702=ADVANCED_FACE('',(#53),#683,.F.);
#703=ADVANCED_FACE('',(#54),#684,.T.);
#704=ADVANCED_FACE('',(#55),#32,.T.);
#705=ADVANCED_FACE('',(#56),#33,.T.);
#706=ADVANCED_FACE('',(#57),#685,.T.);
#707=ADVANCED_FACE('',(#58,#16),#34,.F.);
#708=ADVANCED_FACE('',(#59,#17),#35,.T.);
#709=ADVANCED_FACE('',(#60),#686,.F.);
#710=ADVANCED_FACE('',(#61,#18),#36,.F.);
#711=ADVANCED_FACE('',(#62),#687,.F.);
#712=ADVANCED_FACE('',(#63),#688,.F.);
#713=ADVANCED_FACE('',(#64,#19),#37,.T.);
#714=ADVANCED_FACE('',(#65),#689,.F.);
#715=ADVANCED_FACE('',(#66,#20),#38,.F.);
#716=ADVANCED_FACE('',(#67,#21),#39,.T.);
#717=ADVANCED_FACE('',(#68),#690,.F.);
#718=ADVANCED_FACE('',(#69),#691,.F.);
#719=ADVANCED_FACE('',(#70),#692,.T.);
#720=ADVANCED_FACE('',(#71),#40,.T.);
#721=ADVANCED_FACE('',(#72),#693,.T.);
#722=ADVANCED_FACE('',(#73),#41,.T.);
#723=ADVANCED_FACE('',(#74),#694,.F.);
#724=ADVANCED_FACE('',(#75),#42,.T.);
#725=ADVANCED_FACE('',(#76),#695,.F.);
#726=ADVANCED_FACE('',(#77),#43,.T.);
#727=ADVANCED_FACE('',(#78,#22),#44,.T.);
#728=ADVANCED_FACE('',(#79),#696,.F.);
#729=ADVANCED_FACE('',(#80),#697,.F.);
#730=ADVANCED_FACE('',(#81,#23),#45,.T.);
#731=ADVANCED_FACE('',(#82),#698,.F.);
#732=ADVANCED_FACE('',(#83),#699,.F.);
#733=ADVANCED_FACE('',(#84,#24),#46,.F.);
#734=ADVANCED_FACE('',(#85,#25),#47,.F.);
#735=ADVANCED_FACE('',(#86,#26),#48,.F.);
#736=ADVANCED_FACE('',(#87,#27,#28,#29),#49,.T.);
#737=ADVANCED_FACE('',(#88,#30),#50,.T.);
#738=CLOSED_SHELL('',(#700,#701,#702,#703,#704,#705,#706,#707,#708,#709,
#710,#711,#712,#713,#714,#715,#716,#717,#718,#719,#720,#721,#722,#723,#724,
#725,#726,#727,#728,#729,#730,#731,#732,#733,#734,#735,#736,#737));
#739=DERIVED_UNIT_ELEMENT(#741,1.);
#740=DERIVED_UNIT_ELEMENT(#1283,3.);
#741=(
MASS_UNIT()
NAMED_UNIT(*)
SI_UNIT($,.GRAM.)
);
#742=DERIVED_UNIT((#739,#740));
#743=MEASURE_REPRESENTATION_ITEM('density measure',
POSITIVE_RATIO_MEASURE(1.541),#742);
#744=PROPERTY_DEFINITION_REPRESENTATION(#749,#746);
#745=PROPERTY_DEFINITION_REPRESENTATION(#750,#747);
#746=REPRESENTATION('material name',(#748),#1280);
#747=REPRESENTATION('density',(#743),#1280);
#748=DESCRIPTIVE_REPRESENTATION_ITEM('PET Plastic','PET Plastic');
#749=PROPERTY_DEFINITION('material property','material name',#1290);
#750=PROPERTY_DEFINITION('material property','density of part',#1290);
#751=AXIS2_PLACEMENT_3D('placement',#1065,#837,#838);
#752=AXIS2_PLACEMENT_3D('',#1066,#839,#840);
#753=AXIS2_PLACEMENT_3D('',#1068,#841,#842);
#754=AXIS2_PLACEMENT_3D('',#1071,#844,#845);
#755=AXIS2_PLACEMENT_3D('',#1072,#846,#847);
#756=AXIS2_PLACEMENT_3D('',#1075,#848,#849);
#757=AXIS2_PLACEMENT_3D('',#1076,#850,#851);
#758=AXIS2_PLACEMENT_3D('',#1077,#852,#853);
#759=AXIS2_PLACEMENT_3D('',#1080,#854,#855);
#760=AXIS2_PLACEMENT_3D('',#1081,#856,#857);
#761=AXIS2_PLACEMENT_3D('',#1083,#859,#860);
#762=AXIS2_PLACEMENT_3D('',#1086,#861,#862);
#763=AXIS2_PLACEMENT_3D('',#1090,#864,#865);
#764=AXIS2_PLACEMENT_3D('',#1092,#867,#868);
#765=AXIS2_PLACEMENT_3D('',#1106,#876,#877);
#766=AXIS2_PLACEMENT_3D('',#1110,#879,#880);
#767=AXIS2_PLACEMENT_3D('',#1114,#882,#883);
#768=AXIS2_PLACEMENT_3D('',#1122,#887,#888);
#769=AXIS2_PLACEMENT_3D('',#1126,#890,#891);
#770=AXIS2_PLACEMENT_3D('',#1129,#893,#894);
#771=AXIS2_PLACEMENT_3D('',#1135,#898,#899);
#772=AXIS2_PLACEMENT_3D('',#1138,#901,#902);
#773=AXIS2_PLACEMENT_3D('',#1139,#903,#904);
#774=AXIS2_PLACEMENT_3D('',#1143,#906,#907);
#775=AXIS2_PLACEMENT_3D('',#1147,#909,#910);
#776=AXIS2_PLACEMENT_3D('',#1155,#914,#915);
#777=AXIS2_PLACEMENT_3D('',#1159,#917,#918);
#778=AXIS2_PLACEMENT_3D('',#1163,#920,#921);
#779=AXIS2_PLACEMENT_3D('',#1164,#922,#923);
#780=AXIS2_PLACEMENT_3D('',#1165,#924,#925);
#781=AXIS2_PLACEMENT_3D('',#1169,#927,#928);
#782=AXIS2_PLACEMENT_3D('',#1170,#929,#930);
#783=AXIS2_PLACEMENT_3D('',#1171,#931,#932);
#784=AXIS2_PLACEMENT_3D('',#1173,#933,#934);
#785=AXIS2_PLACEMENT_3D('',#1176,#936,#937);
#786=AXIS2_PLACEMENT_3D('',#1177,#938,#939);
#787=AXIS2_PLACEMENT_3D('',#1180,#940,#941);
#788=AXIS2_PLACEMENT_3D('',#1181,#942,#943);
#789=AXIS2_PLACEMENT_3D('',#1182,#944,#945);
#790=AXIS2_PLACEMENT_3D('',#1184,#947,#948);
#791=AXIS2_PLACEMENT_3D('',#1186,#949,#950);
#792=AXIS2_PLACEMENT_3D('',#1189,#952,#953);
#793=AXIS2_PLACEMENT_3D('',#1190,#954,#955);
#794=AXIS2_PLACEMENT_3D('',#1193,#956,#957);
#795=AXIS2_PLACEMENT_3D('',#1194,#958,#959);
#796=AXIS2_PLACEMENT_3D('',#1195,#960,#961);
#797=AXIS2_PLACEMENT_3D('',#1198,#962,#963);
#798=AXIS2_PLACEMENT_3D('',#1199,#964,#965);
#799=AXIS2_PLACEMENT_3D('',#1201,#967,#968);
#800=AXIS2_PLACEMENT_3D('',#1205,#971,#972);
#801=AXIS2_PLACEMENT_3D('',#1208,#973,#974);
#802=AXIS2_PLACEMENT_3D('',#1209,#975,#976);
#803=AXIS2_PLACEMENT_3D('',#1211,#977,#978);
#804=AXIS2_PLACEMENT_3D('',#1212,#979,#980);
#805=AXIS2_PLACEMENT_3D('',#1214,#982,#983);
#806=AXIS2_PLACEMENT_3D('',#1217,#985,#986);
#807=AXIS2_PLACEMENT_3D('',#1218,#987,#988);
#808=AXIS2_PLACEMENT_3D('',#1223,#992,#993);
#809=AXIS2_PLACEMENT_3D('',#1225,#995,#996);
#810=AXIS2_PLACEMENT_3D('',#1230,#1000,#1001);
#811=AXIS2_PLACEMENT_3D('',#1232,#1003,#1004);
#812=AXIS2_PLACEMENT_3D('',#1234,#1006,#1007);
#813=AXIS2_PLACEMENT_3D('',#1236,#1008,#1009);
#814=AXIS2_PLACEMENT_3D('',#1237,#1010,#1011);
#815=AXIS2_PLACEMENT_3D('',#1238,#1012,#1013);
#816=AXIS2_PLACEMENT_3D('',#1241,#1016,#1017);
#817=AXIS2_PLACEMENT_3D('',#1242,#1018,#1019);
#818=AXIS2_PLACEMENT_3D('',#1243,#1020,#1021);
#819=AXIS2_PLACEMENT_3D('',#1246,#1022,#1023);
#820=AXIS2_PLACEMENT_3D('',#1247,#1024,#1025);
#821=AXIS2_PLACEMENT_3D('',#1249,#1026,#1027);
#822=AXIS2_PLACEMENT_3D('',#1250,#1028,#1029);
#823=AXIS2_PLACEMENT_3D('',#1252,#1031,#1032);
#824=AXIS2_PLACEMENT_3D('',#1255,#1034,#1035);
#825=AXIS2_PLACEMENT_3D('',#1256,#1036,#1037);
#826=AXIS2_PLACEMENT_3D('',#1259,#1038,#1039);
#827=AXIS2_PLACEMENT_3D('',#1260,#1040,#1041);
#828=AXIS2_PLACEMENT_3D('',#1262,#1042,#1043);
#829=AXIS2_PLACEMENT_3D('',#1263,#1044,#1045);
#830=AXIS2_PLACEMENT_3D('',#1265,#1047,#1048);
#831=AXIS2_PLACEMENT_3D('',#1268,#1050,#1051);
#832=AXIS2_PLACEMENT_3D('',#1269,#1052,#1053);
#833=AXIS2_PLACEMENT_3D('',#1273,#1056,#1057);
#834=AXIS2_PLACEMENT_3D('',#1275,#1059,#1060);
#835=AXIS2_PLACEMENT_3D('',#1276,#1061,#1062);
#836=AXIS2_PLACEMENT_3D('',#1277,#1063,#1064);
#837=DIRECTION('axis',(0.,0.,1.));
#838=DIRECTION('refdir',(1.,0.,0.));
#839=DIRECTION('center_axis',(0.,-1.,0.));
#840=DIRECTION('ref_axis',(-1.,0.,0.));
#841=DIRECTION('center_axis',(0.,-1.,0.));
#842=DIRECTION('ref_axis',(-1.,0.,0.));
#843=DIRECTION('',(0.,-1.,0.));
#844=DIRECTION('center_axis',(0.499999999999999,0.866025403784439,0.));
#845=DIRECTION('ref_axis',(-0.866025403784439,0.499999999999999,0.));
#846=DIRECTION('center_axis',(0.,1.,0.));
#847=DIRECTION('ref_axis',(0.,0.,1.));
#848=DIRECTION('center_axis',(0.,-1.,0.));
#849=DIRECTION('ref_axis',(1.,0.,0.));
#850=DIRECTION('center_axis',(0.,-1.,0.));
#851=DIRECTION('ref_axis',(1.,0.,0.));
#852=DIRECTION('center_axis',(0.,1.,0.));
#853=DIRECTION('ref_axis',(1.,0.,0.));
#854=DIRECTION('center_axis',(0.,-1.,0.));
#855=DIRECTION('ref_axis',(1.,0.,0.));
#856=DIRECTION('center_axis',(0.,-1.,0.));
#857=DIRECTION('ref_axis',(1.,0.,0.));
#858=DIRECTION('',(0.,-1.,0.));
#859=DIRECTION('center_axis',(0.,0.,1.));
#860=DIRECTION('ref_axis',(-0.707106781186549,0.707106781186546,0.));
#861=DIRECTION('center_axis',(0.,0.,-1.));
#862=DIRECTION('ref_axis',(-0.707106781186549,0.707106781186546,0.));
#863=DIRECTION('',(0.,0.,-1.));
#864=DIRECTION('center_axis',(0.,0.,1.));
#865=DIRECTION('ref_axis',(-0.707106781186549,0.707106781186546,0.));
#866=DIRECTION('',(0.,0.,1.));
#867=DIRECTION('center_axis',(0.,1.,0.));
#868=DIRECTION('ref_axis',(-1.,0.,0.));
#869=DIRECTION('',(-1.,0.,0.));
#870=DIRECTION('',(0.,0.,-1.));
#871=DIRECTION('',(1.,0.,0.));
#872=DIRECTION('',(0.,0.,1.));
#873=DIRECTION('',(-1.,0.,0.));
#874=DIRECTION('',(0.,0.,1.));
#875=DIRECTION('',(1.,0.,0.));
#876=DIRECTION('center_axis',(0.,0.,1.));
#877=DIRECTION('ref_axis',(1.,0.,0.));
#878=DIRECTION('',(7.40148683083438E-17,-1.,0.));
#879=DIRECTION('center_axis',(0.,0.,1.));
#880=DIRECTION('ref_axis',(0.5,-0.866025403784438,0.));
#881=DIRECTION('',(0.866025403784439,-0.499999999999999,0.));
#882=DIRECTION('center_axis',(0.,0.,-1.));
#883=DIRECTION('ref_axis',(-0.258819045102521,0.965925826289068,0.));
#884=DIRECTION('',(0.499999999999999,0.866025403784439,0.));
#885=DIRECTION('',(-0.866025403784439,0.499999999999999,0.));
#886=DIRECTION('',(-0.499999999999999,-0.866025403784439,0.));
#887=DIRECTION('center_axis',(0.,0.,-1.));
#888=DIRECTION('ref_axis',(0.965925826289068,0.258819045102521,0.));
#889=DIRECTION('',(0.866025403784439,-0.499999999999999,0.));
#890=DIRECTION('center_axis',(0.,0.,1.));
#891=DIRECTION('ref_axis',(-0.866025403784438,-0.500000000000001,0.));
#892=DIRECTION('',(-2.7483484189969E-16,1.,0.));
#893=DIRECTION('center_axis',(0.,0.,-1.));
#894=DIRECTION('ref_axis',(0.707106781186546,0.707106781186549,0.));
#895=DIRECTION('',(0.,-1.,0.));
#896=DIRECTION('',(-1.,0.,0.));
#897=DIRECTION('',(0.,1.,0.));
#898=DIRECTION('center_axis',(0.,0.,1.));
#899=DIRECTION('ref_axis',(0.707106781186546,0.707106781186549,0.));
#900=DIRECTION('',(0.,0.,-1.));
#901=DIRECTION('center_axis',(0.,0.,1.));
#902=DIRECTION('ref_axis',(0.707106781186546,0.707106781186549,0.));
#903=DIRECTION('center_axis',(0.,0.,1.));
#904=DIRECTION('ref_axis',(1.,0.,0.));
#905=DIRECTION('',(2.7483484189969E-16,-1.,0.));
#906=DIRECTION('center_axis',(0.,0.,-1.));
#907=DIRECTION('ref_axis',(-0.866025403784438,-0.500000000000001,0.));
#908=DIRECTION('',(-0.866025403784439,0.499999999999999,0.));
#909=DIRECTION('center_axis',(0.,0.,1.));
#910=DIRECTION('ref_axis',(0.965925826289068,0.258819045102521,0.));
#911=DIRECTION('',(0.499999999999999,0.866025403784439,0.));
#912=DIRECTION('',(0.866025403784439,-0.499999999999999,0.));
#913=DIRECTION('',(-0.499999999999999,-0.866025403784439,0.));
#914=DIRECTION('center_axis',(0.,0.,1.));
#915=DIRECTION('ref_axis',(-0.258819045102521,0.965925826289068,0.));
#916=DIRECTION('',(-0.866025403784439,0.499999999999999,0.));
#917=DIRECTION('center_axis',(0.,0.,-1.));
#918=DIRECTION('ref_axis',(0.5,-0.866025403784438,0.));
#919=DIRECTION('',(-7.40148683083438E-17,1.,0.));
#920=DIRECTION('center_axis',(0.,0.,1.));
#921=DIRECTION('ref_axis',(-1.,0.,0.));
#922=DIRECTION('center_axis',(0.,0.,1.));
#923=DIRECTION('ref_axis',(-1.,0.,0.));
#924=DIRECTION('center_axis',(1.,2.7483484189969E-16,0.));
#925=DIRECTION('ref_axis',(-2.7483484189969E-16,1.,0.));
#926=DIRECTION('',(0.,0.,1.));
#927=DIRECTION('center_axis',(-1.,-2.7483484189969E-16,0.));
#928=DIRECTION('ref_axis',(0.,0.,1.));
#929=DIRECTION('center_axis',(-1.,-2.7483484189969E-16,0.));
#930=DIRECTION('ref_axis',(0.,0.,1.));
#931=DIRECTION('center_axis',(-1.,-4.75654815491037E-16,0.));
#932=DIRECTION('ref_axis',(0.,0.,1.));
#933=DIRECTION('center_axis',(-1.,-4.75654815491037E-16,0.));
#934=DIRECTION('ref_axis',(0.,0.,1.));
#935=DIRECTION('',(-1.,-4.75654815491037E-16,0.));
#936=DIRECTION('center_axis',(1.,0.,0.));
#937=DIRECTION('ref_axis',(0.,0.,1.));
#938=DIRECTION('center_axis',(-1.,-4.75654815491037E-16,0.));
#939=DIRECTION('ref_axis',(0.,0.,1.));
#940=DIRECTION('center_axis',(-1.,-4.75654815491037E-16,0.));
#941=DIRECTION('ref_axis',(0.,0.,1.));
#942=DIRECTION('center_axis',(-1.,-4.75654815491037E-16,0.));
#943=DIRECTION('ref_axis',(0.,0.,1.));
#944=DIRECTION('center_axis',(-1.,-4.75654815491037E-16,0.));
#945=DIRECTION('ref_axis',(0.,0.,1.));
#946=DIRECTION('',(-1.,-4.75654815491037E-16,0.));
#947=DIRECTION('center_axis',(-1.,-7.40148683083438E-17,0.));
#948=DIRECTION('ref_axis',(0.,0.,1.));
#949=DIRECTION('center_axis',(-1.,-7.40148683083438E-17,0.));
#950=DIRECTION('ref_axis',(0.,0.,1.));
#951=DIRECTION('',(1.,7.40148683083438E-17,0.));
#952=DIRECTION('center_axis',(-1.,0.,0.));
#953=DIRECTION('ref_axis',(0.,0.,1.));
#954=DIRECTION('center_axis',(-1.,-7.40148683083438E-17,0.));
#955=DIRECTION('ref_axis',(0.,0.,1.));
#956=DIRECTION('center_axis',(-1.,-7.40148683083438E-17,0.));
#957=DIRECTION('ref_axis',(0.,0.,1.));
#958=DIRECTION('center_axis',(-1.,-7.40148683083438E-17,0.));
#959=DIRECTION('ref_axis',(0.,0.,1.));
#960=DIRECTION('center_axis',(-1.,-7.40148683083438E-17,0.));
#961=DIRECTION('ref_axis',(0.,0.,1.));
#962=DIRECTION('center_axis',(1.,7.40148683083438E-17,0.));
#963=DIRECTION('ref_axis',(0.,0.,1.));
#964=DIRECTION('center_axis',(1.,7.40148683083438E-17,0.));
#965=DIRECTION('ref_axis',(0.,0.,1.));
#966=DIRECTION('',(1.,7.40148683083438E-17,0.));
#967=DIRECTION('center_axis',(1.,0.,0.));
#968=DIRECTION('ref_axis',(0.,-1.,0.));
#969=DIRECTION('',(0.,-1.,0.));
#970=DIRECTION('',(0.,0.,-1.));
#971=DIRECTION('center_axis',(0.,0.,-1.));
#972=DIRECTION('ref_axis',(-1.,0.,0.));
#973=DIRECTION('center_axis',(0.,0.,-1.));
#974=DIRECTION('ref_axis',(-1.,0.,0.));
#975=DIRECTION('center_axis',(0.,0.,-1.));
#976=DIRECTION('ref_axis',(-1.,0.,0.));
#977=DIRECTION('center_axis',(0.,0.,-1.));
#978=DIRECTION('ref_axis',(-1.,0.,0.));
#979=DIRECTION('center_axis',(0.,0.,-1.));
#980=DIRECTION('ref_axis',(-1.,0.,0.));
#981=DIRECTION('',(0.,0.,1.));
#982=DIRECTION('center_axis',(0.,0.,-1.));
#983=DIRECTION('ref_axis',(-1.,0.,0.));
#984=DIRECTION('',(0.,0.,1.));
#985=DIRECTION('center_axis',(0.,0.,-1.));
#986=DIRECTION('ref_axis',(-1.,0.,0.));
#987=DIRECTION('center_axis',(0.,0.,1.));
#988=DIRECTION('ref_axis',(-0.258819045102521,0.965925826289068,0.));
#989=DIRECTION('',(0.,0.,-1.));
#990=DIRECTION('',(0.,0.,-1.));
#991=DIRECTION('',(0.,0.,1.));
#992=DIRECTION('center_axis',(-0.866025403784439,0.499999999999999,0.));
#993=DIRECTION('ref_axis',(-0.499999999999999,-0.866025403784439,0.));
#994=DIRECTION('',(0.,0.,1.));
#995=DIRECTION('center_axis',(0.,0.,1.));
#996=DIRECTION('ref_axis',(0.965925826289068,0.258819045102521,0.));
#997=DIRECTION('',(0.,0.,-1.));
#998=DIRECTION('',(0.,0.,1.));
#999=DIRECTION('',(0.,0.,1.));
#1000=DIRECTION('center_axis',(0.866025403784439,-0.499999999999999,0.));
#1001=DIRECTION('ref_axis',(0.499999999999999,0.866025403784439,0.));
#1002=DIRECTION('',(0.,0.,1.));
#1003=DIRECTION('center_axis',(0.,0.,-1.));
#1004=DIRECTION('ref_axis',(-0.866025403784438,-0.500000000000001,0.));
#1005=DIRECTION('',(0.,0.,-1.));
#1006=DIRECTION('center_axis',(0.499999999999999,0.866025403784439,0.));
#1007=DIRECTION('ref_axis',(-0.866025403784439,0.499999999999999,0.));
#1008=DIRECTION('center_axis',(-0.499999999999999,-0.866025403784439,0.));
#1009=DIRECTION('ref_axis',(0.866025403784439,-0.499999999999999,0.));
#1010=DIRECTION('center_axis',(-0.499999999999999,-0.866025403784439,0.));
#1011=DIRECTION('ref_axis',(0.866025403784439,-0.499999999999999,0.));
#1012=DIRECTION('center_axis',(0.,0.,1.));
#1013=DIRECTION('ref_axis',(0.5,-0.866025403784438,0.));
#1014=DIRECTION('',(0.,0.,1.));
#1015=DIRECTION('',(0.,0.,-1.));
#1016=DIRECTION('center_axis',(0.499999999999999,0.866025403784439,0.));
#1017=DIRECTION('ref_axis',(-0.866025403784439,0.499999999999999,0.));
#1018=DIRECTION('center_axis',(-0.499999999999999,-0.866025403784439,0.));
#1019=DIRECTION('ref_axis',(0.866025403784439,-0.499999999999999,0.));
#1020=DIRECTION('center_axis',(0.499999999999999,0.866025403784439,0.));
#1021=DIRECTION('ref_axis',(0.866025403784439,-0.499999999999999,0.));
#1022=DIRECTION('center_axis',(0.499999999999999,0.866025403784439,0.));
#1023=DIRECTION('ref_axis',(0.866025403784439,-0.499999999999999,0.));
#1024=DIRECTION('center_axis',(0.499999999999999,0.866025403784439,0.));
#1025=DIRECTION('ref_axis',(0.866025403784439,-0.499999999999999,0.));
#1026=DIRECTION('center_axis',(0.499999999999999,0.866025403784439,0.));
#1027=DIRECTION('ref_axis',(0.866025403784439,-0.499999999999999,0.));
#1028=DIRECTION('center_axis',(0.499999999999999,0.866025403784439,0.));
#1029=DIRECTION('ref_axis',(0.866025403784439,-0.499999999999999,0.));
#1030=DIRECTION('',(-0.499999999999999,-0.866025403784439,0.));
#1031=DIRECTION('center_axis',(0.499999999999999,0.866025403784439,0.));
#1032=DIRECTION('ref_axis',(0.866025403784439,-0.499999999999999,0.));
#1033=DIRECTION('',(-0.499999999999999,-0.866025403784439,0.));
#1034=DIRECTION('center_axis',(0.499999999999999,0.866025403784439,0.));
#1035=DIRECTION('ref_axis',(0.866025403784439,-0.499999999999999,0.));
#1036=DIRECTION('center_axis',(0.499999999999999,0.866025403784439,0.));
#1037=DIRECTION('ref_axis',(0.866025403784439,-0.499999999999999,0.));
#1038=DIRECTION('center_axis',(0.499999999999999,0.866025403784439,0.));
#1039=DIRECTION('ref_axis',(0.866025403784439,-0.499999999999999,0.));
#1040=DIRECTION('center_axis',(0.499999999999999,0.866025403784439,0.));
#1041=DIRECTION('ref_axis',(0.866025403784439,-0.499999999999999,0.));
#1042=DIRECTION('center_axis',(0.499999999999999,0.866025403784439,0.));
#1043=DIRECTION('ref_axis',(0.866025403784439,-0.499999999999999,0.));
#1044=DIRECTION('center_axis',(0.499999999999999,0.866025403784439,0.));
#1045=DIRECTION('ref_axis',(0.866025403784439,-0.499999999999999,0.));
#1046=DIRECTION('',(-0.499999999999999,-0.866025403784439,0.));
#1047=DIRECTION('center_axis',(0.499999999999999,0.866025403784439,0.));
#1048=DIRECTION('ref_axis',(0.866025403784439,-0.499999999999999,0.));
#1049=DIRECTION('',(-0.499999999999999,-0.866025403784439,0.));
#1050=DIRECTION('center_axis',(0.499999999999999,0.866025403784439,0.));
#1051=DIRECTION('ref_axis',(0.866025403784439,-0.499999999999999,0.));
#1052=DIRECTION('center_axis',(0.,-1.,0.));
#1053=DIRECTION('ref_axis',(-1.,0.,0.));
#1054=DIRECTION('',(-1.,0.,0.));
#1055=DIRECTION('',(0.,0.,-1.));
#1056=DIRECTION('center_axis',(-1.,0.,0.));
#1057=DIRECTION('ref_axis',(0.,1.,0.));
#1058=DIRECTION('',(0.,1.,0.));
#1059=DIRECTION('center_axis',(0.,0.,-1.));
#1060=DIRECTION('ref_axis',(-1.,0.,0.));
#1061=DIRECTION('center_axis',(-0.499999999999999,-0.866025403784439,0.));
#1062=DIRECTION('ref_axis',(0.866025403784439,-0.499999999999999,0.));
#1063=DIRECTION('center_axis',(-1.,-7.40148683083438E-17,0.));
#1064=DIRECTION('ref_axis',(7.40148683083438E-17,-1.,0.));
#1065=CARTESIAN_POINT('',(0.,0.,0.));
#1066=CARTESIAN_POINT('Origin',(0.,9.18378757109708,16.));
#1067=CARTESIAN_POINT('',(4.6,9.18378757109708,16.));
#1068=CARTESIAN_POINT('Origin',(0.,9.18378757109708,16.));
#1069=CARTESIAN_POINT('',(4.6,-2.65581123827227,16.));
#1070=CARTESIAN_POINT('',(4.6,9.18378757109708,16.));
#1071=CARTESIAN_POINT('Origin',(0.,3.33066907387547E-15,16.));
#1072=CARTESIAN_POINT('Origin',(-2.48072153500858E-16,9.18378757109708,
16.));
#1073=CARTESIAN_POINT('',(2.6,9.18378757109708,16.));
#1074=CARTESIAN_POINT('',(-2.6,9.18378757109709,16.));
#1075=CARTESIAN_POINT('Origin',(0.,9.18378757109709,16.));
#1076=CARTESIAN_POINT('Origin',(0.,9.18378757109709,16.));
#1077=CARTESIAN_POINT('Origin',(0.,-80.2107204951778,16.));
#1078=CARTESIAN_POINT('',(2.6,15.1837875710971,16.));
#1079=CARTESIAN_POINT('',(-2.6,15.1837875710971,16.));
#1080=CARTESIAN_POINT('Origin',(0.,15.1837875710971,16.));
#1081=CARTESIAN_POINT('Origin',(0.,15.1837875710971,16.));
#1082=CARTESIAN_POINT('',(-2.6,-80.2107204951778,16.));
#1083=CARTESIAN_POINT('Origin',(-15.,38.237604307034,0.));
#1084=CARTESIAN_POINT('',(-16.,38.237604307034,26.));
#1085=CARTESIAN_POINT('',(-15.,39.237604307034,26.));
#1086=CARTESIAN_POINT('Origin',(-15.,38.237604307034,26.));
#1087=CARTESIAN_POINT('',(-15.,39.237604307034,0.));
#1088=CARTESIAN_POINT('',(-15.,39.237604307034,0.));
#1089=CARTESIAN_POINT('',(-16.,38.237604307034,0.));
#1090=CARTESIAN_POINT('Origin',(-15.,38.237604307034,0.));
#1091=CARTESIAN_POINT('',(-16.,38.237604307034,0.));
#1092=CARTESIAN_POINT('Origin',(16.,39.237604307034,0.));
#1093=CARTESIAN_POINT('',(-10.05,39.237604307034,26.));
#1094=CARTESIAN_POINT('',(-16.,39.237604307034,26.));
#1095=CARTESIAN_POINT('',(-10.05,39.237604307034,6.));
#1096=CARTESIAN_POINT('',(-10.05,39.237604307034,13.));
#1097=CARTESIAN_POINT('',(10.05,39.237604307034,6.));
#1098=CARTESIAN_POINT('',(8.,39.237604307034,6.));
#1099=CARTESIAN_POINT('',(10.05,39.237604307034,26.));
#1100=CARTESIAN_POINT('',(10.05,39.237604307034,13.));
#1101=CARTESIAN_POINT('',(15.,39.237604307034,26.));
#1102=CARTESIAN_POINT('',(-16.,39.237604307034,26.));
#1103=CARTESIAN_POINT('',(15.,39.237604307034,0.));
#1104=CARTESIAN_POINT('',(15.,39.237604307034,0.));
#1105=CARTESIAN_POINT('',(-16.,39.237604307034,0.));
#1106=CARTESIAN_POINT('Origin',(2.00510146140729,18.381197846483,26.));
#1107=CARTESIAN_POINT('',(-16.,24.8260615751539,26.));
#1108=CARTESIAN_POINT('',(-16.,9.23760430703399,26.));
#1109=CARTESIAN_POINT('',(-23.5,20.4959345562317,26.));
#1110=CARTESIAN_POINT('Origin',(-21.,24.8260615751539,26.));
#1111=CARTESIAN_POINT('',(-33.3205080756888,26.1658075373095,26.));
#1112=CARTESIAN_POINT('',(-9.08253175473055,12.1720053837925,26.));
#1113=CARTESIAN_POINT('',(-40.150635094611,24.3356805183873,26.));
#1114=CARTESIAN_POINT('Origin',(-35.8205080756888,21.8356805183873,26.));
#1115=CARTESIAN_POINT('',(-40.650635094611,23.4696551146028,26.));
#1116=CARTESIAN_POINT('',(-38.400635094611,27.3667694316328,26.));
#1117=CARTESIAN_POINT('',(30.3205080756888,-17.5055534994651,26.));
#1118=CARTESIAN_POINT('',(-22.907849302036,13.2258529610859,26.));
#1119=CARTESIAN_POINT('',(30.8205080756888,-16.6395280956807,26.));
#1120=CARTESIAN_POINT('',(31.0705080756888,-16.2065153937885,26.));
#1121=CARTESIAN_POINT('',(28.9903810567666,-9.80940107675849,26.));
#1122=CARTESIAN_POINT('Origin',(26.4903810567666,-14.1395280956807,26.));
#1123=CARTESIAN_POINT('',(18.5,-3.75277674973256,26.));
#1124=CARTESIAN_POINT('',(15.5777222831138,-2.0655989232415,26.));
#1125=CARTESIAN_POINT('',(16.,0.577350269189632,26.));
#1126=CARTESIAN_POINT('Origin',(21.,0.577350269189632,26.));
#1127=CARTESIAN_POINT('',(16.,38.237604307034,26.));
#1128=CARTESIAN_POINT('',(16.,39.237604307034,26.));
#1129=CARTESIAN_POINT('Origin',(15.,38.237604307034,26.));
#1130=CARTESIAN_POINT('',(10.05,15.1837875710971,26.));
#1131=CARTESIAN_POINT('',(10.05,28.8094010767585,26.));
#1132=CARTESIAN_POINT('',(-10.05,15.1837875710971,26.));
#1133=CARTESIAN_POINT('',(6.02755073070364,15.1837875710971,26.));
#1134=CARTESIAN_POINT('',(-10.05,16.78249270879,26.));
#1135=CARTESIAN_POINT('Origin',(15.,38.237604307034,0.));
#1136=CARTESIAN_POINT('',(16.,38.237604307034,0.));
#1137=CARTESIAN_POINT('',(16.,38.237604307034,0.));
#1138=CARTESIAN_POINT('Origin',(15.,38.237604307034,0.));
#1139=CARTESIAN_POINT('Origin',(2.00510146140729,18.381197846483,0.));
#1140=CARTESIAN_POINT('',(16.,0.577350269189632,0.));
#1141=CARTESIAN_POINT('',(16.,39.237604307034,0.));
#1142=CARTESIAN_POINT('',(18.5,-3.75277674973256,0.));
#1143=CARTESIAN_POINT('Origin',(21.,0.577350269189632,0.));
#1144=CARTESIAN_POINT('',(28.9903810567666,-9.80940107675849,0.));
#1145=CARTESIAN_POINT('',(33.3205080756888,-12.3094010767585,0.));
#1146=CARTESIAN_POINT('',(30.8205080756888,-16.6395280956807,0.));
#1147=CARTESIAN_POINT('Origin',(26.4903810567666,-14.1395280956807,0.));
#1148=CARTESIAN_POINT('',(30.3205080756888,-17.5055534994651,0.));
#1149=CARTESIAN_POINT('',(30.3205080756888,-17.5055534994651,0.));
#1150=CARTESIAN_POINT('',(-40.650635094611,23.4696551146028,0.));
#1151=CARTESIAN_POINT('',(-40.650635094611,23.4696551146028,0.));
#1152=CARTESIAN_POINT('',(-40.150635094611,24.3356805183873,0.));
#1153=CARTESIAN_POINT('',(-37.650635094611,28.6658075373095,0.));
#1154=CARTESIAN_POINT('',(-33.3205080756888,26.1658075373095,0.));
#1155=CARTESIAN_POINT('Origin',(-35.8205080756888,21.8356805183873,0.));
#1156=CARTESIAN_POINT('',(-23.5,20.4959345562317,0.));
#1157=CARTESIAN_POINT('',(-16.,16.1658075373095,0.));
#1158=CARTESIAN_POINT('',(-16.,24.8260615751539,0.));
#1159=CARTESIAN_POINT('Origin',(-21.,24.8260615751539,0.));
#1160=CARTESIAN_POINT('',(-16.,9.23760430703399,0.));
#1161=CARTESIAN_POINT('',(-5.,27.2106959390656,0.));
#1162=CARTESIAN_POINT('',(5.,27.2106959390656,0.));
#1163=CARTESIAN_POINT('Origin',(-1.11022302462516E-15,27.2106959390656,
0.));
#1164=CARTESIAN_POINT('Origin',(-1.11022302462516E-15,27.2106959390656,
0.));
#1165=CARTESIAN_POINT('Origin',(16.,-9.23760430703399,0.));
#1166=CARTESIAN_POINT('',(16.,0.57735026918963,0.));
#1167=CARTESIAN_POINT('',(16.,31.237604307034,21.));
#1168=CARTESIAN_POINT('',(16.,31.237604307034,11.));
#1169=CARTESIAN_POINT('Origin',(16.,31.237604307034,16.));
#1170=CARTESIAN_POINT('Origin',(16.,31.237604307034,16.));
#1171=CARTESIAN_POINT('Origin',(-79.3945080662749,31.237604307034,16.));
#1172=CARTESIAN_POINT('',(13.,31.237604307034,13.4));
#1173=CARTESIAN_POINT('Origin',(13.,31.237604307034,16.));
#1174=CARTESIAN_POINT('',(10.05,31.237604307034,13.4));
#1175=CARTESIAN_POINT('',(-79.3945080662749,31.237604307034,13.4));
#1176=CARTESIAN_POINT('Origin',(10.05,31.237604307034,16.));
#1177=CARTESIAN_POINT('Origin',(13.,31.237604307034,16.));
#1178=CARTESIAN_POINT('',(13.,31.237604307034,21.));
#1179=CARTESIAN_POINT('',(13.,31.237604307034,11.));
#1180=CARTESIAN_POINT('Origin',(13.,31.237604307034,16.));
#1181=CARTESIAN_POINT('Origin',(13.,31.237604307034,16.));
#1182=CARTESIAN_POINT('Origin',(14.5,31.237604307034,16.));
#1183=CARTESIAN_POINT('',(14.5,31.237604307034,11.));
#1184=CARTESIAN_POINT('Origin',(79.3945080662749,31.237604307034,16.));
#1185=CARTESIAN_POINT('',(-13.,31.237604307034,13.4));
#1186=CARTESIAN_POINT('Origin',(-13.,31.237604307034,16.));
#1187=CARTESIAN_POINT('',(-10.05,31.237604307034,13.4));
#1188=CARTESIAN_POINT('',(79.3945080662749,31.237604307034,13.4));
#1189=CARTESIAN_POINT('Origin',(-10.05,31.237604307034,16.));
#1190=CARTESIAN_POINT('Origin',(-13.,31.237604307034,16.));
#1191=CARTESIAN_POINT('',(-13.,31.237604307034,21.));
#1192=CARTESIAN_POINT('',(-13.,31.237604307034,11.));
#1193=CARTESIAN_POINT('Origin',(-13.,31.237604307034,16.));
#1194=CARTESIAN_POINT('Origin',(-13.,31.237604307034,16.));
#1195=CARTESIAN_POINT('Origin',(-14.5,31.237604307034,16.));
#1196=CARTESIAN_POINT('',(-16.,31.237604307034,21.));
#1197=CARTESIAN_POINT('',(-16.,31.237604307034,11.));
#1198=CARTESIAN_POINT('Origin',(-16.,31.237604307034,16.));
#1199=CARTESIAN_POINT('Origin',(-16.,31.237604307034,16.));
#1200=CARTESIAN_POINT('',(-14.5,31.237604307034,11.));
#1201=CARTESIAN_POINT('Origin',(10.05,39.237604307034,26.));
#1202=CARTESIAN_POINT('',(10.05,15.1837875710971,6.));
#1203=CARTESIAN_POINT('',(10.05,15.1837875710971,6.));
#1204=CARTESIAN_POINT('',(10.05,15.1837875710971,26.));
#1205=CARTESIAN_POINT('Origin',(-1.11022302462516E-15,27.2106959390656,
3.));
#1206=CARTESIAN_POINT('',(-5.,27.2106959390656,3.));
#1207=CARTESIAN_POINT('',(5.,27.2106959390656,3.));
#1208=CARTESIAN_POINT('Origin',(-1.11022302462516E-15,27.2106959390656,
3.));
#1209=CARTESIAN_POINT('Origin',(-1.11022302462516E-15,27.2106959390656,
3.));
#1210=CARTESIAN_POINT('',(2.6,27.2106959390656,3.00000000000001));
#1211=CARTESIAN_POINT('Origin',(-1.11022302462516E-15,27.2106959390656,
3.00000000000001));
#1212=CARTESIAN_POINT('Origin',(-1.11022302462516E-15,27.2106959390656,
1.5));
#1213=CARTESIAN_POINT('',(5.,27.2106959390656,1.5));
#1214=CARTESIAN_POINT('Origin',(-1.11022302462516E-15,27.2106959390656,
95.3945080662749));
#1215=CARTESIAN_POINT('',(2.6,27.2106959390656,6.));
#1216=CARTESIAN_POINT('',(2.6,27.2106959390656,95.3945080662749));
#1217=CARTESIAN_POINT('Origin',(-1.11022302462516E-15,27.2106959390656,
6.));
#1218=CARTESIAN_POINT('Origin',(-35.8205080756888,21.8356805183873,0.));
#1219=CARTESIAN_POINT('',(-33.3205080756888,26.1658075373095,16.));
#1220=CARTESIAN_POINT('',(-33.3205080756888,26.1658075373095,0.));
#1221=CARTESIAN_POINT('',(-33.3205080756888,26.1658075373095,0.));
#1222=CARTESIAN_POINT('',(-40.150635094611,24.3356805183873,0.));
#1223=CARTESIAN_POINT('Origin',(-37.650635094611,28.6658075373095,0.));
#1224=CARTESIAN_POINT('',(-40.650635094611,23.4696551146028,0.));
#1225=CARTESIAN_POINT('Origin',(26.4903810567666,-14.1395280956807,0.));
#1226=CARTESIAN_POINT('',(30.8205080756888,-16.6395280956807,0.));
#1227=CARTESIAN_POINT('',(28.9903810567666,-9.80940107675849,16.));
#1228=CARTESIAN_POINT('',(28.9903810567666,-9.80940107675849,0.));
#1229=CARTESIAN_POINT('',(28.9903810567666,-9.80940107675849,0.));
#1230=CARTESIAN_POINT('Origin',(30.3205080756888,-17.5055534994651,0.));
#1231=CARTESIAN_POINT('',(30.3205080756888,-17.5055534994651,0.));
#1232=CARTESIAN_POINT('Origin',(21.,0.577350269189632,0.));
#1233=CARTESIAN_POINT('',(18.5,-3.75277674973256,0.));
#1234=CARTESIAN_POINT('Origin',(33.3205080756888,-12.3094010767585,0.));
#1235=CARTESIAN_POINT('',(20.3301270189222,-4.8094010767585,16.));
#1236=CARTESIAN_POINT('Origin',(24.6602540378444,-7.3094010767585,16.));
#1237=CARTESIAN_POINT('Origin',(24.6602540378444,-7.3094010767585,16.));
#1238=CARTESIAN_POINT('Origin',(-21.,24.8260615751539,0.));
#1239=CARTESIAN_POINT('',(-23.5,20.4959345562317,0.));
#1240=CARTESIAN_POINT('',(-16.,24.8260615751539,0.));
#1241=CARTESIAN_POINT('Origin',(-16.,16.1658075373095,0.));
#1242=CARTESIAN_POINT('Origin',(-28.9903810567666,23.6658075373095,16.));
#1243=CARTESIAN_POINT('Origin',(-30.4903810567666,21.0677313259562,16.));
#1244=CARTESIAN_POINT('',(-26.1602540378444,18.5677313259562,16.));
#1245=CARTESIAN_POINT('',(-34.8205080756888,23.5677313259562,16.));
#1246=CARTESIAN_POINT('Origin',(-30.4903810567666,21.0677313259562,16.));
#1247=CARTESIAN_POINT('Origin',(-30.4903810567666,21.0677313259562,16.));
#1248=CARTESIAN_POINT('',(-32.7420471066061,22.3677313259562,16.));
#1249=CARTESIAN_POINT('Origin',(-30.4903810567666,21.0677313259562,16.));
#1250=CARTESIAN_POINT('Origin',(-29.7403810567666,22.3667694316328,16.));
#1251=CARTESIAN_POINT('',(-34.0705080756888,24.8667694316328,16.));
#1252=CARTESIAN_POINT('Origin',(-77.3833453691907,-60.1532653806768,16.));
#1253=CARTESIAN_POINT('',(-34.2420471066061,19.7696551146029,16.));
#1254=CARTESIAN_POINT('',(-79.6350114190303,-58.8532653806768,16.));
#1255=CARTESIAN_POINT('Origin',(-31.9903810567666,18.4696551146029,16.));
#1256=CARTESIAN_POINT('Origin',(23.1602540378444,-9.90747728811181,16.));
#1257=CARTESIAN_POINT('',(27.4903810567666,-12.4074772881118,16.));
#1258=CARTESIAN_POINT('',(18.8301270189222,-7.40747728811182,16.));
#1259=CARTESIAN_POINT('Origin',(23.1602540378444,-9.90747728811181,16.));
#1260=CARTESIAN_POINT('Origin',(23.1602540378444,-9.90747728811181,16.));
#1261=CARTESIAN_POINT('',(20.9085879880049,-8.60747728811182,16.));
#1262=CARTESIAN_POINT('Origin',(23.1602540378444,-9.90747728811182,16.));
#1263=CARTESIAN_POINT('Origin',(23.9102540378444,-8.60843918243515,16.));
#1264=CARTESIAN_POINT('',(19.5801270189222,-6.10843918243516,16.));
#1265=CARTESIAN_POINT('Origin',(-23.7327102745797,-91.1284739947447,16.));
#1266=CARTESIAN_POINT('',(19.4085879880049,-11.2055534994651,16.));
#1267=CARTESIAN_POINT('',(-25.9843763244193,-89.8284739947447,16.));
#1268=CARTESIAN_POINT('Origin',(21.6602540378444,-12.5055534994651,16.));
#1269=CARTESIAN_POINT('Origin',(10.05,15.1837875710971,26.));
#1270=CARTESIAN_POINT('',(-10.05,15.1837875710971,6.));
#1271=CARTESIAN_POINT('',(-10.05,15.1837875710971,6.));
#1272=CARTESIAN_POINT('',(-10.05,15.1837875710971,26.));
#1273=CARTESIAN_POINT('Origin',(-10.05,15.1837875710971,26.));
#1274=CARTESIAN_POINT('',(-10.05,39.237604307034,6.));
#1275=CARTESIAN_POINT('Origin',(0.,27.2106959390655,6.));
#1276=CARTESIAN_POINT('Origin',(-16.,9.23760430703399,0.));
#1277=CARTESIAN_POINT('Origin',(-16.,39.237604307034,0.));
#1278=UNCERTAINTY_MEASURE_WITH_UNIT(LENGTH_MEASURE(0.01),#1282,
'DISTANCE_ACCURACY_VALUE',
'Maximum model space distance between geometric entities at asserted c
onnectivities');
#1279=UNCERTAINTY_MEASURE_WITH_UNIT(LENGTH_MEASURE(0.01),#1282,
'DISTANCE_ACCURACY_VALUE',
'Maximum model space distance between geometric entities at asserted c
onnectivities');
#1280=(
GEOMETRIC_REPRESENTATION_CONTEXT(3)
GLOBAL_UNCERTAINTY_ASSIGNED_CONTEXT((#1278))
GLOBAL_UNIT_ASSIGNED_CONTEXT((#1282,#1285,#1284))
REPRESENTATION_CONTEXT('','3D')
);
#1281=(
GEOMETRIC_REPRESENTATION_CONTEXT(3)
GLOBAL_UNCERTAINTY_ASSIGNED_CONTEXT((#1279))
GLOBAL_UNIT_ASSIGNED_CONTEXT((#1282,#1285,#1284))
REPRESENTATION_CONTEXT('','3D')
);
#1282=(
LENGTH_UNIT()
NAMED_UNIT(*)
SI_UNIT(.MILLI.,.METRE.)
);
#1283=(
LENGTH_UNIT()
NAMED_UNIT(*)
SI_UNIT(.CENTI.,.METRE.)
);
#1284=(
NAMED_UNIT(*)
SI_UNIT($,.STERADIAN.)
SOLID_ANGLE_UNIT()
);
#1285=(
NAMED_UNIT(*)
PLANE_ANGLE_UNIT()
SI_UNIT($,.RADIAN.)
);
#1286=SHAPE_DEFINITION_REPRESENTATION(#1287,#1288);
#1287=PRODUCT_DEFINITION_SHAPE('',$,#1290);
#1288=SHAPE_REPRESENTATION('',(#751),#1280);
#1289=PRODUCT_DEFINITION_CONTEXT('part definition',#1294,'design');
#1290=PRODUCT_DEFINITION('mount print bed support',
'mount print bed support',#1291,#1289);
#1291=PRODUCT_DEFINITION_FORMATION('',$,#1296);
#1292=PRODUCT_RELATED_PRODUCT_CATEGORY('mount print bed support',
'mount print bed support',(#1296));
#1293=APPLICATION_PROTOCOL_DEFINITION('international standard',
'automotive_design',2009,#1294);
#1294=APPLICATION_CONTEXT(
'Core Data for Automotive Mechanical Design Process');
#1295=PRODUCT_CONTEXT('part definition',#1294,'mechanical');
#1296=PRODUCT('mount print bed support','mount print bed support',$,(#1295));
#1297=PRESENTATION_STYLE_ASSIGNMENT((#1298));
#1298=SURFACE_STYLE_USAGE(.BOTH.,#1299);
#1299=SURFACE_SIDE_STYLE('',(#1300));
#1300=SURFACE_STYLE_FILL_AREA(#1301);
#1301=FILL_AREA_STYLE('',(#1302));
#1302=FILL_AREA_STYLE_COLOUR('',#1303);
#1303=COLOUR_RGB('',0.235294117647059,0.901960784313726,0.392156862745098);
ENDSEC;
END-ISO-10303-21;
